<?xml version="1.0" encoding="utf-8"?>
<!-- Generator: Adobe Illustrator 21.1.0, SVG Export Plug-In . SVG Version: 6.00 Build 0)  -->
<svg version="1.1" id="logo" xmlns="http://www.w3.org/2000/svg" xmlns:xlink="http://www.w3.org/1999/xlink" x="0px" y="0px"
	 viewBox="0 0 81.3 18.2" style="enable-background:new 0 0 81.3 18.2;" xml:space="preserve">
<g>
	<path class="st0" d="M3.4,10.3c0-0.5,0.3-0.9,1-0.9c0.7,0,4.2,0,4.2,0v2.1H4.4c-0.8,0-1-0.5-1-0.8V10.3z M12.1,6.5
		c0-1.2-1-1.8-2.2-1.8H0.5l0,1.7h7.1c0.5,0,1,0.2,1,0.8l0,0.3H1.9C0.7,7.7,0,8.5,0,9.5v2.1c0,0.8,0.6,1.9,1.9,1.9h10.2L12.1,6.5z"/>
	<path class="st0" d="M72.6,10.3c0-0.5,0.3-0.9,1-0.9c0.7,0,4.2,0,4.2,0v2.1h-4.2c-0.8,0-1-0.5-1-0.8V10.3z M81.3,6.5
		c0-1.2-1-1.8-2.2-1.8h-9.4v1.7h7.1c0.5,0,1,0.2,1,0.8l0,0.3h-6.8c-1.2,0-1.9,0.9-1.9,1.8v2.1c0,0.8,0.6,1.9,1.9,1.9h10.2L81.3,6.5z
		"/>
	<path class="st0" d="M43.3,9c0,0.5,0,4.4,0,4.4l3.6,0V4.8h-3.6l-5.1,5.6c0,0,0-0.5,0-1c0-0.6,0-4.6,0-4.6h-3.6v8.6h3.6l5.1-5.7
		C43.3,7.7,43.3,8.6,43.3,9z"/>
	<polygon class="st0" points="67.6,4.8 64,4.8 64,11.5 59.9,11.5 59.9,4.8 56.3,4.8 56.3,11.5 52.2,11.5 52.2,4.8 48.6,4.8 
		48.6,13.4 67.6,13.4 	"/>
	<path class="st0" d="M30.8,4.8h-5.7V0h-3.6v4.8h-5.7c-1.2,0-2.2,0.5-2.2,1.8v5.1c0,1.2,1,1.9,2.2,1.9h5.7v4.8h3.6v-4.8h5.7
		c1.2,0,2.2-0.6,2.2-1.9V6.5C33,5.3,32,4.8,30.8,4.8z M21.6,11.6h-3.4c-0.6,0-1-0.3-1-0.9V7.4c0-0.6,0.4-0.9,1-0.9h3.4V11.6z
		 M29.6,10.7c0,0.6-0.4,0.9-1,0.9h-3.4V6.5h3.4c0.6,0,1,0.3,1,0.9V10.7z"/>
</g>
</svg>
